…
``` r
permits_count_prop <- group_count_prop(building_permits, year, type_of_work)
```

    ## `summarise()` has grouped output by 'year'. You can override using the
    ## `.groups` argument.

``` r
print(permits_count_prop)
```

    ## # A tibble: 24 × 4
    ## # Groups:   year [4]
    ##     year type_of_work                             n proportion
    ##    <dbl> <chr>                                <int>      <dbl>
    ##  1  2017 Addition / Alteration                 3133    0.465  
    ##  2  2017 Demolition / Deconstruction            877    0.130  
    ##  3  2017 New Building                          1527    0.227  
    ##  4  2017 Outdoor Uses (No Buildings Proposed)    11    0.00163
    ##  5  2017 Salvage and Abatement                 1113    0.165  
    ##  6  2017 Temporary Building / Structure          73    0.0108 
    ##  7  2018 Addition / Alteration                 3321    0.491  
    ##  8  2018 Demolition / Deconstruction            836    0.124  
    ##  9  2018 New Building                          1674    0.248  
    ## 10  2018 Outdoor Uses (No Buildings Proposed)     9    0.00133
    ## # ℹ 14 more rows
…
